<?xml version="1.0" standalone="no"?>
<!DOCTYPE svg PUBLIC "-//W3C//DTD SVG 1.1//EN" "http://www.w3.org/Graphics/SVG/1.1/DTD/svg11.dtd">
<svg xmlns="http://www.w3.org/2000/svg">
<metadata>Copyright (C) 2018 by original authors @ fontello.com</metadata>
<defs>
<font id="fontello" horiz-adv-x="1000" >
<font-face font-family="fontello" font-weight="400" font-stretch="normal" units-per-em="1000" ascent="850" descent="-150" />
<missing-glyph horiz-adv-x="1000" />
<glyph glyph-name="bullhorn" unicode="&#xe800;" d="M251 420c9 0 16 9 16 18s-7 16-16 16l-100 0c-9 0-18-7-18-16s9-18 18-18l100 0z m0-72c9 0 16 9 16 17s-7 17-16 17l-100 0c-9 0-18-8-18-17s9-17 18-17l100 0z m210-14c119 0 211-42 290-121l0 376c-78-82-171-126-290-126l0-129z m497 220l-33 34 137 136 34-32z m25-175l0 48 230 0 0-48-230 0z m-58-171l33 34 138-138-34-32z m-128 516c20 0 36-15 36-34l0-577c0-19-16-34-36-34s-35 15-35 34c-59 72-162 165-317 165l-64 0 140-236-85-62c-21-11-44 3-56 18l-174 280-94 0s-87 47-87 122 87 118 87 118l333 0c155 0 258 96 317 172 0 19 15 34 35 34z" horiz-adv-x="1213" />

<glyph glyph-name="award" unicode="&#xe801;" d="M496 231l3 0 117-223-125-11-78-92-104 164-104-164-84 94-121 9 118 223 1 2c1-9 5-15 10-23 9-12 22-20 39-29 13-5 26-7 37-7 13 0 25 2 33 7 6-5 12-11 20-15 12-7 28-12 47-12 18 0 33 5 46 12 8 4 13 10 18 15 11-5 22-7 35-7 11 0 22 2 36 7 19 9 30 17 39 29 5 8 10 14 12 23 2-2 3-2 5-2z m100 295c5-7 8-18 8-31s-3-22-8-30c-6-14-78-10-92-10l0 0c12-6 80-29 81-42 3-10 0-20-5-33-10-27-29-34-40-34-7 0-62 33-65 35l-4 2 2-2c7-7 65-57 60-70-3-10-8-18-17-27-12-13-23-19-37-19-8 0-54 54-61 61l-2 2 0-4c5-10 37-76 29-86-6-8-14-15-26-19-9-4-18-6-25-6-16 0-43 70-50 82l0 0c0-12 4-85-9-91-7-6-19-9-30-9-14 0-24 3-31 9-13 6-9 79-9 91l0 3-1-3c-5-12-33-82-50-82-6 0-15 2-25 6-11 4-19 11-25 19-9 10 22 76 27 86l3 4-5-2c-8-7-53-61-60-61-11 0-24 6-36 19-9 9-15 17-17 27-3 13 50 63 58 70l4 2-5-2c-3-2-58-35-63-35-14 0-30 7-42 34-5 13-7 23-5 33 1 13 70 36 82 42l0 0c-12 0-85-4-92 10-7 8-8 18-8 30s1 24 8 31c7 12 80 8 92 8l3 0-3 1c-12 5-81 29-82 44-2 9 0 20 5 31 12 28 28 33 42 33 5 0 60-33 63-35l5-2-4 4c-8 8-61 56-58 70 2 9 8 18 17 28 12 11 25 16 36 16 7 0 52-50 60-59l5-4-3 5c-5 10-36 75-27 88 6 7 14 12 25 17 10 4 19 5 25 5 17 0 45-68 50-82l1-3 0 3c0 14-4 86 9 94 7 5 17 7 31 7 11 0 23-2 30-7 13-8 9-80 9-94l0 0c7 14 34 82 50 82 7 0 16-1 25-5 12-5 20-10 26-17 8-13-24-78-29-88l0-5 2 4c7 9 53 59 61 59 14 0 25-5 37-16 9-10 14-19 17-28 5-14-53-62-60-70l-2-4 4 2c3 2 58 35 65 35 11 0 30-5 40-33 5-11 8-22 5-31-1-15-69-39-81-44l-3-1 3 0c14 0 86 4 92-8z m-291-225c106 0 193 88 193 194 0 108-87 195-193 195-107 0-196-87-196-195 0-106 89-194 196-194z m0 45c-84 0-151 67-151 149 0 84 67 150 151 150 83 0 148-66 148-150 0-82-65-149-148-149z" horiz-adv-x="616" />

<glyph glyph-name="thumbs-up" unicode="&#xe802;" d="M746 213c23-45 4-91-27-114 72-226-418-104-456-67l0-58c0-16-14-30-29-30l-205 0c-15 0-29 14-29 30l0 482c0 15 14 28 29 28l205 0c15 0 29-13 29-28l0-33c97 64 147 224 148 230 15 65 53 103 107 103 56 0 122-55 122-172 0-28-11-73-29-107l18 0c74 0 157-35 130-141 29-49 10-103-13-123z m-110 1c-16 3-16 17 0 17 72 0 74 75 9 77-14 1-14 15 0 15 65 0 54 83-16 83l-74 0c-26 0-39 16-39 32 0 30 53 95 53 145 0 64-31 101-51 101-22 0-33-17-35-38-15-100-125-267-220-308l0-226c133-66 251-71 307-74 85-2 128 65 40 84-19 2-17 19-4 19 89 0 95 66 30 73z" horiz-adv-x="773" />

<glyph glyph-name="user" unicode="&#xe803;" d="M897-41l-895 0s-4 11 0 71c51 27 292 92 306 98l1 45 19 5s7 70 7 81c0 0-28 56-35 89 0 0-23 0-26 24-4 25 0 41-6 60-4 17 10 36 21 32 0 0-25 129 0 164 18 25 71 89 198 111 0 0 31 4 41-1 7-3 6-5-9-21 0 0 65-40 86-104 13-40 8-126 0-149 0 0 19 4 17-20-4-39-5-110-33-96 0 0-1-80-25-96 0 0-7-63 4-65l16 0s6-52 19-65c0 0 267-69 294-99 1-33 0-64 0-64z" horiz-adv-x="897" />
</font>
</defs>
</svg>