<?xml version="1.0" encoding="UTF-8"?>
<svg width="1600px" height="902px" viewBox="0 0 1600 902" version="1.1" xmlns="http://www.w3.org/2000/svg" xmlns:xlink="http://www.w3.org/1999/xlink">
    <!-- Generator: Sketch 47.1 (45422) - http://www.bohemiancoding.com/sketch -->
    <title>Green_Shape_BG</title>
    <desc>Created with Sketch.</desc>
    <defs/>
    <g id="*-Design" stroke="none" stroke-width="1" fill="none" fill-rule="evenodd">
        <g id="Home" transform="translate(0.000000, -1588.000000)" fill="#374722">
            <g id="Header" transform="translate(-3.000000, -78.000000)">
                <g id="Elements/Header/Basic">
                    <polygon id="Green_Shape_BG" transform="translate(801.499415, 2117.089844) scale(-1, 1) translate(-801.499415, -2117.089844) " points="1.48278144 1666.19946 1602.40229 2033.7778 1600.06497 2347.47657 1056.19555 2567.98023 0.596538795 2240.4"/>
                </g>
            </g>
        </g>
    </g>
</svg>